<svg id="mermaid-1541173950671" width="100%" xmlns="http://www.w3.org/2000/svg" style="max-width: 74.296875px;" viewBox="0 0 74.296875 171"><style>


#mermaid-1541173950671 .label {
  font-family: 'trebuchet ms', verdana, arial;
  color: #333; }

#mermaid-1541173950671 .node rect,
#mermaid-1541173950671 .node circle,
#mermaid-1541173950671 .node ellipse,
#mermaid-1541173950671 .node polygon {
  fill: #ECECFF;
  stroke: #9370DB;
  stroke-width: 1px; }

#mermaid-1541173950671 .node.clickable {
  cursor: pointer; }

#mermaid-1541173950671 .arrowheadPath {
  fill: #333333; }

#mermaid-1541173950671 .edgePath .path {
  stroke: #333333;
  stroke-width: 1.5px; }

#mermaid-1541173950671 .edgeLabel {
  background-color: #e8e8e8; }

#mermaid-1541173950671 .cluster rect {
  fill: #ffffde !important;
  stroke: #aaaa33 !important;
  stroke-width: 1px !important; }

#mermaid-1541173950671 .cluster text {
  fill: #333; }

#mermaid-1541173950671 div.mermaidTooltip {
  position: absolute;
  text-align: center;
  max-width: 200px;
  padding: 2px;
  font-family: 'trebuchet ms', verdana, arial;
  font-size: 12px;
  background: #ffffde;
  border: 1px solid #aaaa33;
  border-radius: 2px;
  pointer-events: none;
  z-index: 100; }

#mermaid-1541173950671 .actor {
  stroke: #CCCCFF;
  fill: #ECECFF; }

#mermaid-1541173950671 text.actor {
  fill: black;
  stroke: none; }

#mermaid-1541173950671 .actor-line {
  stroke: grey; }

#mermaid-1541173950671 .messageLine0 {
  stroke-width: 1.5;
  stroke-dasharray: '2 2';
  marker-end: 'url(#arrowhead)';
  stroke: #333; }

#mermaid-1541173950671 .messageLine1 {
  stroke-width: 1.5;
  stroke-dasharray: '2 2';
  stroke: #333; }

#mermaid-1541173950671 #arrowhead {
  fill: #333; }

#mermaid-1541173950671 #crosshead path {
  fill: #333 !important;
  stroke: #333 !important; }

#mermaid-1541173950671 .messageText {
  fill: #333;
  stroke: none; }

#mermaid-1541173950671 .labelBox {
  stroke: #CCCCFF;
  fill: #ECECFF; }

#mermaid-1541173950671 .labelText {
  fill: black;
  stroke: none; }

#mermaid-1541173950671 .loopText {
  fill: black;
  stroke: none; }

#mermaid-1541173950671 .loopLine {
  stroke-width: 2;
  stroke-dasharray: '2 2';
  marker-end: 'url(#arrowhead)';
  stroke: #CCCCFF; }

#mermaid-1541173950671 .note {
  stroke: #aaaa33;
  fill: #fff5ad; }

#mermaid-1541173950671 .noteText {
  fill: black;
  stroke: none;
  font-family: 'trebuchet ms', verdana, arial;
  font-size: 14px; }


#mermaid-1541173950671 .section {
  stroke: none;
  opacity: 0.2; }

#mermaid-1541173950671 .section0 {
  fill: rgba(102, 102, 255, 0.49); }

#mermaid-1541173950671 .section2 {
  fill: #fff400; }

#mermaid-1541173950671 .section1,
#mermaid-1541173950671 .section3 {
  fill: white;
  opacity: 0.2; }

#mermaid-1541173950671 .sectionTitle0 {
  fill: #333; }

#mermaid-1541173950671 .sectionTitle1 {
  fill: #333; }

#mermaid-1541173950671 .sectionTitle2 {
  fill: #333; }

#mermaid-1541173950671 .sectionTitle3 {
  fill: #333; }

#mermaid-1541173950671 .sectionTitle {
  text-anchor: start;
  font-size: 11px;
  text-height: 14px; }


#mermaid-1541173950671 .grid .tick {
  stroke: lightgrey;
  opacity: 0.3;
  shape-rendering: crispEdges; }

#mermaid-1541173950671 .grid path {
  stroke-width: 0; }


#mermaid-1541173950671 .today {
  fill: none;
  stroke: red;
  stroke-width: 2px; }



#mermaid-1541173950671 .task {
  stroke-width: 2; }

#mermaid-1541173950671 .taskText {
  text-anchor: middle;
  font-size: 11px; }

#mermaid-1541173950671 .taskTextOutsideRight {
  fill: black;
  text-anchor: start;
  font-size: 11px; }

#mermaid-1541173950671 .taskTextOutsideLeft {
  fill: black;
  text-anchor: end;
  font-size: 11px; }


#mermaid-1541173950671 .taskText0,
#mermaid-1541173950671 .taskText1,
#mermaid-1541173950671 .taskText2,
#mermaid-1541173950671 .taskText3 {
  fill: white; }

#mermaid-1541173950671 .task0,
#mermaid-1541173950671 .task1,
#mermaid-1541173950671 .task2,
#mermaid-1541173950671 .task3 {
  fill: #8a90dd;
  stroke: #534fbc; }

#mermaid-1541173950671 .taskTextOutside0,
#mermaid-1541173950671 .taskTextOutside2 {
  fill: black; }

#mermaid-1541173950671 .taskTextOutside1,
#mermaid-1541173950671 .taskTextOutside3 {
  fill: black; }


#mermaid-1541173950671 .active0,
#mermaid-1541173950671 .active1,
#mermaid-1541173950671 .active2,
#mermaid-1541173950671 .active3 {
  fill: #bfc7ff;
  stroke: #534fbc; }

#mermaid-1541173950671 .activeText0,
#mermaid-1541173950671 .activeText1,
#mermaid-1541173950671 .activeText2,
#mermaid-1541173950671 .activeText3 {
  fill: black !important; }


#mermaid-1541173950671 .done0,
#mermaid-1541173950671 .done1,
#mermaid-1541173950671 .done2,
#mermaid-1541173950671 .done3 {
  stroke: grey;
  fill: lightgrey;
  stroke-width: 2; }

#mermaid-1541173950671 .doneText0,
#mermaid-1541173950671 .doneText1,
#mermaid-1541173950671 .doneText2,
#mermaid-1541173950671 .doneText3 {
  fill: black !important; }


#mermaid-1541173950671 .crit0,
#mermaid-1541173950671 .crit1,
#mermaid-1541173950671 .crit2,
#mermaid-1541173950671 .crit3 {
  stroke: #ff8888;
  fill: red;
  stroke-width: 2; }

#mermaid-1541173950671 .activeCrit0,
#mermaid-1541173950671 .activeCrit1,
#mermaid-1541173950671 .activeCrit2,
#mermaid-1541173950671 .activeCrit3 {
  stroke: #ff8888;
  fill: #bfc7ff;
  stroke-width: 2; }

#mermaid-1541173950671 .doneCrit0,
#mermaid-1541173950671 .doneCrit1,
#mermaid-1541173950671 .doneCrit2,
#mermaid-1541173950671 .doneCrit3 {
  stroke: #ff8888;
  fill: lightgrey;
  stroke-width: 2;
  cursor: pointer;
  shape-rendering: crispEdges; }

#mermaid-1541173950671 .doneCritText0,
#mermaid-1541173950671 .doneCritText1,
#mermaid-1541173950671 .doneCritText2,
#mermaid-1541173950671 .doneCritText3 {
  fill: black !important; }

#mermaid-1541173950671 .activeCritText0,
#mermaid-1541173950671 .activeCritText1,
#mermaid-1541173950671 .activeCritText2,
#mermaid-1541173950671 .activeCritText3 {
  fill: black !important; }

#mermaid-1541173950671 .titleText {
  text-anchor: middle;
  font-size: 18px;
  fill: black; }

#mermaid-1541173950671 g.classGroup text {
  fill: #9370DB;
  stroke: none;
  font-family: 'trebuchet ms', verdana, arial;
  font-size: 10px; }

#mermaid-1541173950671 g.classGroup rect {
  fill: #ECECFF;
  stroke: #9370DB; }

#mermaid-1541173950671 g.classGroup line {
  stroke: #9370DB;
  stroke-width: 1; }

#mermaid-1541173950671 .classLabel .box {
  stroke: none;
  stroke-width: 0;
  fill: #ECECFF;
  opacity: 0.5; }

#mermaid-1541173950671 .classLabel .label {
  fill: #9370DB;
  font-size: 10px; }

#mermaid-1541173950671 .relation {
  stroke: #9370DB;
  stroke-width: 1;
  fill: none; }

#mermaid-1541173950671 #compositionStart {
  fill: #9370DB;
  stroke: #9370DB;
  stroke-width: 1; }

#mermaid-1541173950671 #compositionEnd {
  fill: #9370DB;
  stroke: #9370DB;
  stroke-width: 1; }

#mermaid-1541173950671 #aggregationStart {
  fill: #ECECFF;
  stroke: #9370DB;
  stroke-width: 1; }

#mermaid-1541173950671 #aggregationEnd {
  fill: #ECECFF;
  stroke: #9370DB;
  stroke-width: 1; }

#mermaid-1541173950671 #dependencyStart {
  fill: #9370DB;
  stroke: #9370DB;
  stroke-width: 1; }

#mermaid-1541173950671 #dependencyEnd {
  fill: #9370DB;
  stroke: #9370DB;
  stroke-width: 1; }

#mermaid-1541173950671 #extensionStart {
  fill: #9370DB;
  stroke: #9370DB;
  stroke-width: 1; }

#mermaid-1541173950671 #extensionEnd {
  fill: #9370DB;
  stroke: #9370DB;
  stroke-width: 1; }

#mermaid-1541173950671 .commit-id,
#mermaid-1541173950671 .commit-msg,
#mermaid-1541173950671 .branch-label {
  fill: lightgrey;
  color: lightgrey; }
</style><style>#mermaid-1541173950671 {
    color: rgba(0, 0, 0, 0.65);
    font: normal normal 400 normal 14px / 21px "Monospaced Number", "Chinese Quote", -apple-system, BlinkMacSystemFont, "Segoe UI", Roboto, "PingFang SC", "Hiragino Sans GB", "Microsoft YaHei", "Helvetica Neue", Helvetica, Arial, sans-serif;
  }</style><g transform="translate(-12, -12)"><g class="output"><g class="clusters"></g><g class="edgePaths"><g class="edgePath" style="opacity: 1;"><path class="path" d="M49.1484375,72.5L49.1484375,97.5L49.1484375,122.5" marker-end="url(#arrowhead96)" style="fill:none"></path><defs><marker id="arrowhead96" viewBox="0 0 10 10" refX="9" refY="5" markerUnits="strokeWidth" markerWidth="8" markerHeight="6" orient="auto"><path d="M 0 0 L 10 5 L 0 10 z" class="arrowheadPath" style="stroke-width: 1; stroke-dasharray: 1, 0;"></path></marker></defs></g></g><g class="edgeLabels"><g class="edgeLabel" transform="" style="opacity: 1;"><g transform="translate(0,0)" class="label"><foreignObject width="0" height="0"><div xmlns="http://www.w3.org/1999/xhtml" style="display: inline-block; white-space: nowrap;"><span class="edgeLabel"></span></div></foreignObject></g></g></g><g class="nodes"><g class="node" id="Start" transform="translate(49.1484375,46.25)" style="opacity: 1;"><rect rx="0" ry="0" x="-29.1484375" y="-26.25" width="58.296875" height="52.5"></rect><g class="label" transform="translate(0,0)"><g transform="translate(-19.1484375,-16.25)"><foreignObject width="38.30078125" height="32.5"><div xmlns="http://www.w3.org/1999/xhtml" style="display: inline-block; white-space: nowrap;">Start</div></foreignObject></g></g></g><g class="node" id="Stop" transform="translate(49.1484375,148.75)" style="opacity: 1;"><rect rx="0" ry="0" x="-27.25" y="-26.25" width="54.5" height="52.5"></rect><g class="label" transform="translate(0,0)"><g transform="translate(-17.25,-16.25)"><foreignObject width="34.51171875" height="32.5"><div xmlns="http://www.w3.org/1999/xhtml" style="display: inline-block; white-space: nowrap;">Stop</div></foreignObject></g></g></g></g></g></g></svg>